module gitlab.com/tokend/regources/v4

go 1.16

require (
	github.com/google/go-cmp v0.5.6 // indirect
	github.com/nullstyle/go-xdr v0.0.0-20180726165426-f4c839f75077 // indirect
	github.com/pkg/errors v0.8.0 // indirect
	github.com/stretchr/testify v1.7.0
	gitlab.com/distributed_lab/logan v3.8.0+incompatible
	gitlab.com/tokend/go v3.15.1-0.20211012170121-ef00dadaabc8+incompatible
	gotest.tools v2.2.0+incompatible
)
